quarto-input216686f7
…
EAID

URBAN

Load IPUMS PMA data into R

You’ll receive two files from IPUMS - put both in the data folder where analysis.Rmd is located.

pma <- read_ipums_micro(
  ddi = "data/pma_00136.xml", # Use your own file name here 
  data = "data/pma_00136.dat.gz" # Use your own file name here 
)

# A tibble: 8,257 × 180
      SAMPLE_1    SAMPLE_2 SAMPLE_3 SAMPLE_4 COUNTRY YEAR_1 YEAR_2 YEAR_3 YEAR_4
     <int+lbl>   <int+lbl> <int+lb> <int+lb> <int+l>  <int>  <int>  <int>  <int>
 1 85409 [Bur… 85412 [Bur…       NA       NA 1 [Bur…   2019   2021     NA     NA
 2 85409 [Bur… 85412 [Bur…       NA       NA 1 [Bur…   2019   2021     NA     NA
 3 85409 [Bur… 85412 [Bur…       NA       NA 1 [Bur…   2019   2021     NA     NA
 4 85409 [Bur… 85412 [Bur…       NA       NA 1 [Bur…   2019   2021     NA     NA
 5 85409 [Bur… 85412 [Bur…       NA       NA 1 [Bur…   2019   2021     NA     NA
 6 85409 [Bur… 85412 [Bur…       NA       NA 1 [Bur…   2019   2021     NA     NA
 7 85409 [Bur… 85412 [Bur…       NA       NA 1 [Bur…   2019   2021     NA     NA
 8 85409 [Bur… 85412 [Bur…       NA       NA 1 [Bur…   2019   2021     NA     NA
 9 85409 [Bur… 85412 [Bur…       NA       NA 1 [Bur…   2019   2021     NA     NA
10 85409 [Bur… 85412 [Bur…       NA       NA 1 [Bur…   2019   2021     NA     NA
# … with 8,247 more rows, and 171 more variables: ELIGIBLE_1 <int+lbl>,
#   ELIGIBLE_2 <int+lbl>, EAID_1 <dbl>, EAID_2 <dbl>, EAID_3 <dbl>,
#   EAID_4 <dbl>, CONSENTFQ_1 <int+lbl>, CONSENTFQ_2 <int+lbl>,
#   RESULTFQ_1 <int+lbl>, RESULTFQ_2 <int+lbl>, CROSS_SECTION_1 <int+lbl>,
#   CROSS_SECTION_2 <int+lbl>, INTFQMON_1 <int+lbl>, INTFQMON_2 <int+lbl>,
#   INTFQYEAR_1 <int+lbl>, INTFQYEAR_2 <int+lbl>, FQINSTID <chr>,
#   CONSENTHQ_1 <int+lbl>, CONSENTHQ_2 <int+lbl>, FQWEIGHT_1 <dbl>, …
…
Load PMA GPS data into R

A PMA GPS dataset is a simple CSV file with one row per EA, and columns containing latitude and longitude points.

gps <- read_csv("data/pma_gps.csv")

# A tibble: 167 × 8
   PMACC PMAYEAR REGION                EAID GPSLONG GPSLAT DATUM SURVEY
   <chr>   <dbl> <chr>                <dbl>   <dbl>  <dbl> <chr> <chr> 
 1 BF       2020 8. est           854181006 -0.160    13.4 WGS84 PMA   
 2 BF       2020 3. centre        854131035 -1.47     12.4 WGS84 PMA   
 3 BF       2020 6. centre_ouest  854161005 -1.92     11.1 WGS84 PMA   
 4 BF       2020 10. nord         854201013 -2.54     12.9 WGS84 PMA   
 5 BF       2020 9. hauts_bassins 854191041 -4.23     11.2 WGS84 PMA   
 6 BF       2020 2. cascades      854121002 -4.84     10.3 WGS84 PMA   
 7 BF       2020 6. centre_ouest  854161009 -2.20     12.8 WGS84 PMA   
 8 BF       2020 8. est           854181005 -0.0319   12.5 WGS84 PMA   
 9 BF       2020 10. nord         854201005 -1.90     12.9 WGS84 PMA   
10 BF       2020 9. hauts_bassins 854191026 -5.24     11.4 WGS84 PMA   
# … with 157 more rows
…
gps <- gps %>% 
  st_as_sf(
    coords = c("GPSLONG", "GPSLAT"), 
    crs = 4326
  ) 

4326 is the EPSG code for World Geodetic System 1984.

Simple feature collection with 167 features and 6 fields
Geometry type: POINT
Dimension:     XY
Bounding box:  xmin: -5.277929 ymin: 10.29263 xmax: 0.6744602 ymax: 14.21399
Geodetic CRS:  WGS 84
# A tibble: 167 × 7
   PMACC PMAYEAR REGION              EAID DATUM SURVEY               geometry
 * <chr>   <dbl> <chr>              <dbl> <chr> <chr>             <POINT [°]>
 1 BF       2020 8. est            8.54e8 WGS84 PMA     (-0.1595212 13.36634)
 2 BF       2020 3. centre         8.54e8 WGS84 PMA      (-1.467466 12.43239)
 3 BF       2020 6. centre_ouest   8.54e8 WGS84 PMA      (-1.915129 11.13271)
 4 BF       2020 10. nord          8.54e8 WGS84 PMA      (-2.542757 12.88571)
 5 BF       2020 9. hauts_bassins  8.54e8 WGS84 PMA      (-4.232418 11.19971)
 6 BF       2020 2. cascades       8.54e8 WGS84 PMA       (-4.83967 10.29263)
 7 BF       2020 6. centre_ouest   8.54e8 WGS84 PMA      (-2.204062 12.75554)
 8 BF       2020 8. est            8.54e8 WGS84 PMA    (-0.03191096 12.45061)
 9 BF       2020 10. nord          8.54e8 WGS84 PMA      (-1.895065 12.90935)
10 BF       2020 9. hauts_bassins  8.54e8 WGS84 PMA      (-5.239322 11.37056)
# … with 157 more rows
…
Projection to Meters

We’ll use EPSG code 32630 to focus our flat projection around Burkina Faso.

gps <- gps %>% st_transform(crs = 32630)
shape <- shape %>% st_transform(crs = 32630)

Simple feature collection with 167 features and 6 fields
Geometry type: POINT
Dimension:     XY
Bounding box:  xmin: 250808.3 ymin: 1138345 xmax: 899207.2 ymax: 1573191
Projected CRS: WGS 84 / UTM zone 30N
# A tibble: 167 × 7
   PMACC PMAYEAR REGION              EAID DATUM SURVEY           geometry
 * <chr>   <dbl> <chr>              <dbl> <chr> <chr>         <POINT [m]>
 1 BF       2020 8. est            8.54e8 WGS84 PMA    (807680.7 1479413)
 2 BF       2020 3. centre         8.54e8 WGS84 PMA    (666577.8 1374847)
 3 BF       2020 6. centre_ouest   8.54e8 WGS84 PMA    (618468.7 1230870)
 4 BF       2020 10. nord          8.54e8 WGS84 PMA    (549607.1 1424541)
 5 BF       2020 9. hauts_bassins  8.54e8 WGS84 PMA    (365447.7 1238343)
 6 BF       2020 2. cascades       8.54e8 WGS84 PMA    (298530.9 1138345)
 7 BF       2020 6. centre_ouest   8.54e8 WGS84 PMA    (586398.8 1410234)
 8 BF       2020 8. est            8.54e8 WGS84 PMA    (822688.7 1378185)
 9 BF       2020 10. nord          8.54e8 WGS84 PMA    (619870.7 1427369)
10 BF       2020 9. hauts_bassins  8.54e8 WGS84 PMA    (255620.7 1257895)
# … with 157 more rows

This changes the geometry column to meters [m].

Creating Buffers

To keep things simple in our example, we’ll give every EA a 5 km buffer.

gps_buffer <- gps %>% st_buffer(5000)

Simple feature collection with 167 features and 6 fields
Geometry type: POLYGON
Dimension:     XY
Bounding box:  xmin: 245808.3 ymin: 1133345 xmax: 904207.2 ymax: 1578191
Projected CRS: WGS 84 / UTM zone 30N
# A tibble: 167 × 7
   PMACC PMAYEAR REGION              EAID DATUM SURVEY                  geometry
 * <chr>   <dbl> <chr>              <dbl> <chr> <chr>              <POLYGON [m]>
 1 BF       2020 8. est            8.54e8 WGS84 PMA    ((812680.7 1479413, 8126…
 2 BF       2020 3. centre         8.54e8 WGS84 PMA    ((671577.8 1374847, 6715…
 3 BF       2020 6. centre_ouest   8.54e8 WGS84 PMA    ((623468.7 1230870, 6234…
 4 BF       2020 10. nord          8.54e8 WGS84 PMA    ((554607.1 1424541, 5546…
 5 BF       2020 9. hauts_bassins  8.54e8 WGS84 PMA    ((370447.7 1238343, 3704…
 6 BF       2020 2. cascades       8.54e8 WGS84 PMA    ((303530.9 1138345, 3035…
 7 BF       2020 6. centre_ouest   8.54e8 WGS84 PMA    ((591398.8 1410234, 5913…
 8 BF       2020 8. est            8.54e8 WGS84 PMA    ((827688.7 1378185, 8276…
 9 BF       2020 10. nord          8.54e8 WGS84 PMA    ((624870.7 1427369, 6248…
10 BF       2020 9. hauts_bassins  8.54e8 WGS84 PMA    ((260620.7 1257895, 2606…
# … with 157 more rows
…
Birth outcomes by EA

Where are the enumeration areas where more women gave birth than average?

ea_summary <- pma %>% 
  as_survey_design(weight = PANELWEIGHT) %>% 
  group_by(ea = EAID_1, urban = URBAN == 1) %>% 
  summarise(birth_prop = survey_mean(PANELBIRTH_2 == 1, vartype = NULL)) %>% 
  ungroup()

# A tibble: 167 × 3
          ea urban birth_prop
       <dbl> <lgl>      <dbl>
 1 854111001 FALSE     0.228 
 2 854111002 TRUE      0.0469
 3 854111003 TRUE      0.190 
 4 854111004 FALSE     0.260 
 5 854111005 FALSE     0.304 
 6 854111006 TRUE      0.107 
 7 854111007 FALSE     0.218 
 8 854111008 FALSE     0.209 
 9 854111009 FALSE     0.118 
10 854111010 TRUE      0.148 
# … with 157 more rows

Birth outcomes by EA

Where are the enumeration areas where more women gave birth than average?

ea_summary <- pma %>% 
  as_survey_design(weight = PANELWEIGHT) %>% 
  group_by(ea = EAID_1, urban = URBAN == 1) %>% 
  summarise(birth_prop = survey_mean(PANELBIRTH_2 == 1, vartype = NULL)) %>% 
  ungroup() %>% 
  mutate(
    ntile = ntile(birth_prop, 2)
  )

# A tibble: 167 × 4
          ea urban birth_prop ntile
       <dbl> <lgl>      <dbl> <int>
 1 854111001 FALSE     0.228      2
 2 854111002 TRUE      0.0469     1
 3 854111003 TRUE      0.190      2
 4 854111004 FALSE     0.260      2
 5 854111005 FALSE     0.304      2
 6 854111006 TRUE      0.107      1
 7 854111007 FALSE     0.218      2
 8 854111008 FALSE     0.209      2
 9 854111009 FALSE     0.118      1
10 854111010 TRUE      0.148      2
# … with 157 more rows
Birth outcomes by EA

Where are the enumeration areas where more women gave birth than average?

ea_summary <- pma %>% 
  as_survey_design(weight = PANELWEIGHT) %>% 
  group_by(ea = EAID_1, urban = URBAN == 1) %>% 
  summarise(birth_prop = survey_mean(PANELBIRTH_2 == 1, vartype = NULL)) %>% 
  ungroup() %>% 
  mutate(
    ntile = ntile(birth_prop, 2),
    many_births = ntile == 2
  )

# A tibble: 167 × 5
          ea urban birth_prop ntile many_births
       <dbl> <lgl>      <dbl> <int> <lgl>      
 1 854111001 FALSE     0.228      2 TRUE       
 2 854111002 TRUE      0.0469     1 FALSE      
 3 854111003 TRUE      0.190      2 TRUE       
 4 854111004 FALSE     0.260      2 TRUE       
 5 854111005 FALSE     0.304      2 TRUE       
 6 854111006 TRUE      0.107      1 FALSE      
 7 854111007 FALSE     0.218      2 TRUE       
 8 854111008 FALSE     0.209      2 TRUE       
 9 854111009 FALSE     0.118      1 FALSE      
10 854111010 TRUE      0.148      2 TRUE       
# … with 157 more rows
…
If you list gps_buffer first, the result will be another Simple Features object.

ea_summary_gps <- full_join(
  gps_buffer %>% select(ea = EAID), 
  ea_summary, 
  by = "ea"
)

Simple feature collection with 167 features and 5 fields
Geometry type: POLYGON
Dimension:     XY
Bounding box:  xmin: -5.32361 ymin: 10.24743 xmax: 0.7204144 ymax: 14.25915
Geodetic CRS:  WGS 84
# A tibble: 167 × 6
          ea urban birth_prop ntile many_births                         geometry
       <dbl> <lgl>      <dbl> <int> <lgl>                          <POLYGON [°]>
 1 854111012 TRUE      0.253      2 TRUE        ((-3.856566 11.95614, -3.856747…
 2 854111006 TRUE      0.107      1 FALSE       ((-3.02159 11.87068, -3.021778 …
 3 854111002 TRUE      0.0469     1 FALSE       ((-3.202698 12.88706, -3.202886…
 4 854111007 FALSE     0.218      2 TRUE        ((-2.790317 12.89155, -2.790508…
 5 854111011 FALSE     0.150      2 TRUE        ((-3.474768 12.52022, -3.474953…
 6 854111008 FALSE     0.209      2 TRUE        ((-3.864223 13.27047, -3.864404…
 7 854191039 TRUE      0.196      2 TRUE        ((-3.235588 11.51495, -3.235775…
 8 854111003 TRUE      0.190      2 TRUE        ((-3.322203 12.54741, -3.322389…
 9 854191008 FALSE     0.190      2 TRUE        ((-4.30137 11.91649, -4.301547 …
10 854111010 TRUE      0.148      2 TRUE        ((-3.205145 12.61123, -3.205333…
# … with 157 more rows
…
Enumeration Area Z-scores

Link by row ID

ea_summary_gps <- ea_summary_gps %>% rowid_to_column("ID")

Simple feature collection with 167 features and 6 fields
Geometry type: POLYGON
Dimension:     XY
Bounding box:  xmin: -5.32361 ymin: 10.24743 xmax: 0.7204144 ymax: 14.25915
Geodetic CRS:  WGS 84
# A tibble: 167 × 7
      ID        ea urban birth_prop ntile many_births                   geometry
   <int>     <dbl> <lgl>      <dbl> <int> <lgl>                    <POLYGON [°]>
 1     1 854111012 TRUE      0.253      2 TRUE        ((-3.856566 11.95614, -3.…
 2     2 854111006 TRUE      0.107      1 FALSE       ((-3.02159 11.87068, -3.0…
 3     3 854111002 TRUE      0.0469     1 FALSE       ((-3.202698 12.88706, -3.…
 4     4 854111007 FALSE     0.218      2 TRUE        ((-2.790317 12.89155, -2.…
 5     5 854111011 FALSE     0.150      2 TRUE        ((-3.474768 12.52022, -3.…
 6     6 854111008 FALSE     0.209      2 TRUE        ((-3.864223 13.27047, -3.…
 7     7 854191039 TRUE      0.196      2 TRUE        ((-3.235588 11.51495, -3.…
 8     8 854111003 TRUE      0.190      2 TRUE        ((-3.322203 12.54741, -3.…
 9     9 854191008 FALSE     0.190      2 TRUE        ((-4.30137 11.91649, -4.3…
10    10 854111010 TRUE      0.148      2 TRUE        ((-3.205145 12.61123, -3.…
# … with 157 more rows

Enumeration Area Z-scores

Calculate one z-score per row ID

ea_summary_z <- chirps_z$`2020` %>% 
  extract(vect(ea_summary_gps), weights = TRUE) %>% 
  tibble() %>% 
  group_by(ID) %>% 
  summarise(z = weighted.mean(`2020`, weight)) 

# A tibble: 167 × 2
      ID     z
   <dbl> <dbl>
 1     1 0.863
 2     2 0.601
 3     3 0.472
 4     4 0.790
 5     5 0.860
 6     6 1.37 
 7     7 0.911
 8     8 0.672
 9     9 0.704
10    10 0.498
# … with 157 more rows

Enumeration Area Z-scores

… and join z-scores back with the ea codes for each enumeration area

ea_summary_z <- ea_summary_gps %>% 
  st_drop_geometry() %>% 
  select(ID, ea) %>% 
  full_join(ea_summary_z, by = "ID")

# A tibble: 167 × 3
      ID        ea     z
   <dbl>     <dbl> <dbl>
 1     1 854111012 0.863
 2     2 854111006 0.601
 3     3 854111002 0.472
 4     4 854111007 0.790
 5     5 854111011 0.860
 6     6 854111008 1.37 
 7     7 854191039 0.911
 8     8 854111003 0.672
 9     9 854191008 0.704
10    10 854111010 0.498
# … with 157 more rows

Merging Z-scores with PMA data

We’ll use transmute to select a handful of variables from pma to use in our analysis.

pma_chirps <- pma %>% 
  transmute(
    ea = EAID_1, 
    wt = PANELWEIGHT,
    birth = PANELBIRTH_2 == 1,
    urban = URBAN == 1
  ) 

# A tibble: 5,487 × 4
          ea    wt birth urban
       <dbl> <dbl> <lgl> <lgl>
 1 854111005 2.50  TRUE  FALSE
 2 854111004 2.61  TRUE  FALSE
 3 854161007 3.21  FALSE FALSE
 4 854141008 0.538 FALSE TRUE 
 5 854191022 0.358 FALSE FALSE
 6 854141002 3.20  FALSE FALSE
 7 854131034 0.404 FALSE TRUE 
 8 854191036 0.314 TRUE  FALSE
 9 854121003 0.337 FALSE TRUE 
10 854231003 2.55  FALSE FALSE
# … with 5,477 more rows
…
We’ll use transmute to select a handful of variables from pma to use in our analysis.

pma_chirps <- pma %>% 
  transmute(
    ea = EAID_1, 
    wt = PANELWEIGHT,
    birth = PANELBIRTH_2 == 1,
    urban = URBAN == 1
  ) 

Another full_join allows us to merge ea_summary_z for each woman’s enumeration area.

pma_chirps <- pma_chirps %>% full_join(ea_summary_z, by = "ea") 

# A tibble: 5,487 × 6
          ea    wt birth urban    ID     z
       <dbl> <dbl> <lgl> <lgl> <dbl> <dbl>
 1 854111005 2.50  TRUE  FALSE    12 1.18 
 2 854111004 2.61  TRUE  FALSE    13 1.21 
 3 854161007 3.21  FALSE FALSE    75 0.375
 4 854141008 0.538 FALSE TRUE     53 1.25 
 5 854191022 0.358 FALSE FALSE   107 0.767
 6 854141002 3.20  FALSE FALSE    51 1.13 
 7 854131034 0.404 FALSE TRUE     28 1.22 
 8 854191036 0.314 TRUE  FALSE    96 0.593
 9 854121003 0.337 FALSE TRUE     17 1.18 
10 854231003 2.55  FALSE FALSE   166 0.418
# … with 5,477 more rows
…
